{
  "type": "FeatureCollection",
  "totalFeatures": 31,
  "features": [
    {
      "type": "Feature",
      "id": "portlist.1",
      "geometry": {
        "type": "Point",
        "coordinates": [
          -61.38,
          15.592
        ]
      },
      "geometry_name": "the_geom",
      "properties": {
        "lsID": 1,
        "port": "ADI",
        "lsName": "Anse du Me",
        "lsGeoLocat": "N",
        "lsCategory": "Other",
        "settlement": "Rural",
        "infrastruc": "none",
        "lat": 15.592,
        "long": -61.38,
        "FLOZone": 2,
        "activity": "high",
        "group": "NON",
        "type": "Official"
      }
    },
    {
      "type": "Feature",
      "id": "portlist.2",
      "geometry": {
        "type": "Point",
        "coordinates": [
          -61.448,
          15.45
        ]
      },
      "geometry_name": "the_geom",
      "properties": {
        "lsID": 2,
        "port": "BAT",
        "lsName": "Batalie",
        "lsGeoLocat": "W",
        "lsCategory": "Coulibistrie",
        "settlement": "Rural",
        "infrastruc": "none",
        "lat": 15.45,
        "long": -61.448,
        "FLOZone": 1,
        "activity": "med",
        "group": "CBT",
        "type": "Official"
      }
    },
    {
      "type": "Feature",
      "id": "portlist.3",
      "geometry": {
        "type": "Point",
        "coordinates": [
          -61.465,
          15.505
        ]
      },
      "geometry_name": "the_geom",
      "properties": {
        "lsID": 4,
        "port": "BOE",
        "lsName": "Bioche",
        "lsGeoLocat": "NW",
        "lsCategory": "Bioche",
        "settlement": "Rural",
        "infrastruc": "none",
        "lat": 15.505,
        "long": -61.465,
        "FLOZone": 1,
        "activity": "Low",
        "group": "NON",
        "type": "Official"
      }
    },
    {
      "type": "Feature",
      "id": "portlist.4",
      "geometry": {
        "type": "Point",
        "coordinates": [
          -61.257,
          15.435
        ]
      },
      "geometry_name": "the_geom",
      "properties": {
        "lsID": 8,
        "port": "CBE",
        "lsName": "Castle Bruce",
        "lsGeoLocat": "E",
        "lsCategory": "Saint Sauveur",
        "settlement": "Rural",
        "infrastruc": "none",
        "lat": 15.435,
        "long": -61.257,
        "FLOZone": 3,
        "activity": "Low",
        "group": "SSR",
        "type": "Official"
      }
    },
    {
      "type": "Feature",
      "id": "portlist.5",
      "geometry": {
        "type": "Point",
        "coordinates": [
          -61.347,
          15.594
        ]
      },
      "geometry_name": "the_geom",
      "properties": {
        "lsID": 5,
        "port": "CBH",
        "lsName": "Calibishie",
        "lsGeoLocat": "NE",
        "lsCategory": "Other",
        "settlement": "Rural",
        "infrastruc": "none",
        "lat": 15.594,
        "long": -61.347,
        "FLOZone": 2,
        "activity": "Low",
        "group": "ADI",
        "type": "Official"
      }
    },
    {
      "type": "Feature",
      "id": "portlist.6",
      "geometry": {
        "type": "Point",
        "coordinates": [
          -61.45,
          15.461
        ]
      },
      "geometry_name": "the_geom",
      "properties": {
        "lsID": 11,
        "port": "CBT",
        "lsName": "Coulibistrie",
        "lsGeoLocat": "NW",
        "lsCategory": "Coulibistrie",
        "settlement": "Rural",
        "infrastruc": "none",
        "lat": 15.461,
        "long": -61.45,
        "FLOZone": 1,
        "activity": "Low",
        "group": "NON",
        "type": "Official"
      }
    },
    {
      "type": "Feature",
      "id": "portlist.7",
      "geometry": {
        "type": "Point",
        "coordinates": [
          -61.46,
          15.483
        ]
      },
      "geometry_name": "the_geom",
      "properties": {
        "lsID": 10,
        "port": "CHT",
        "lsName": "Colihaut",
        "lsGeoLocat": "NW",
        "lsCategory": "Colihaut",
        "settlement": "Rural",
        "infrastruc": "none",
        "lat": 15.483,
        "long": -61.46,
        "FLOZone": 1,
        "activity": "med",
        "group": "NON",
        "type": "Official"
      }
    },
    {
      "type": "Feature",
      "id": "portlist.8",
      "geometry": {
        "type": "Point",
        "coordinates": [
          -61.463,
          15.621
        ]
      },
      "geometry_name": "the_geom",
      "properties": {
        "lsID": 9,
        "port": "CLF",
        "lsName": "Clifton",
        "lsGeoLocat": "N",
        "lsCategory": "Other",
        "settlement": "Rural",
        "infrastruc": "none",
        "lat": 15.621,
        "long": -61.463,
        "FLOZone": 1,
        "activity": "Low",
        "group": "CPN",
        "type": "Official"
      }
    },
    {
      "type": "Feature",
      "id": "portlist.9",
      "geometry": {
        "type": "Point",
        "coordinates": [
          -61.464,
          15.63
        ]
      },
      "geometry_name": "the_geom",
      "properties": {
        "lsID": 7,
        "port": "CPN",
        "lsName": "Capuchin",
        "lsGeoLocat": "N",
        "lsCategory": "Other",
        "settlement": "Rural",
        "infrastruc": "none",
        "lat": 15.63,
        "long": -61.464,
        "FLOZone": 1,
        "activity": "Low",
        "group": "NON",
        "type": "Official"
      }
    },
    {
      "type": "Feature",
      "id": "portlist.10",
      "geometry": {
        "type": "Point",
        "coordinates": [
          -61.47,
          15.515
        ]
      },
      "geometry_name": "the_geom",
      "properties": {
        "lsID": 12,
        "port": "DBL",
        "lsName": "Dublanc",
        "lsGeoLocat": "NW",
        "lsCategory": "Dublanc",
        "settlement": "Rural",
        "infrastruc": "some",
        "lat": 15.515,
        "long": -61.47,
        "FLOZone": 1,
        "activity": "med",
        "group": "NON",
        "type": "Official"
      }
    },
    {
      "type": "Feature",
      "id": "portlist.11",
      "geometry": {
        "type": "Point",
        "coordinates": [
          -61.39,
          15.316
        ]
      },
      "geometry_name": "the_geom",
      "properties": {
        "lsID": 13,
        "port": "FDC",
        "lsName": "Fond Cole",
        "lsGeoLocat": "W",
        "lsCategory": "Fond Cole",
        "settlement": "Suburban",
        "infrastruc": "none",
        "lat": 15.316,
        "long": -61.39,
        "FLOZone": 5,
        "activity": "med",
        "group": "NON",
        "type": "Official"
      }
    },
    {
      "type": "Feature",
      "id": "portlist.12",
      "geometry": {
        "type": "Point",
        "coordinates": [
          -61.283,
          15.244
        ]
      },
      "geometry_name": "the_geom",
      "properties": {
        "lsID": 14,
        "port": "FSJ",
        "lsName": "Fond St. Jean",
        "lsGeoLocat": "SE",
        "lsCategory": "Fond St. Jean",
        "settlement": "Rural",
        "infrastruc": "some",
        "lat": 15.244,
        "long": -61.283,
        "FLOZone": 4,
        "activity": "high",
        "group": "NON",
        "type": "Official"
      }
    },
    {
      "type": "Feature",
      "id": "portlist.13",
      "geometry": {
        "type": "Point",
        "coordinates": [
          -61.404,
          15.368
        ]
      },
      "geometry_name": "the_geom",
      "properties": {
        "lsID": 43,
        "port": "JIM",
        "lsName": "Jimmit",
        "lsGeoLocat": "W",
        "lsCategory": "Other",
        "settlement": "Suburban",
        "infrastruc": "none",
        "lat": 15.368,
        "long": -61.404,
        "FLOZone": 5,
        "activity": "Low",
        "group": "NON",
        "type": "Official"
      }
    },
    {
      "type": "Feature",
      "id": "portlist.14",
      "geometry": {
        "type": "Point",
        "coordinates": [
          -61.428,
          15.399
        ]
      },
      "geometry_name": "the_geom",
      "properties": {
        "lsID": 15,
        "port": "LYU",
        "lsName": "Layou",
        "lsGeoLocat": "W",
        "lsCategory": "Layou",
        "settlement": "Rural",
        "infrastruc": "some",
        "lat": 15.399,
        "long": -61.428,
        "FLOZone": 5,
        "activity": "Low",
        "group": "NON",
        "type": "Official"
      }
    },
    {
      "type": "Feature",
      "id": "portlist.15",
      "geometry": {
        "type": "Point",
        "coordinates": [
          -61.286,
          15.542
        ]
      },
      "geometry_name": "the_geom",
      "properties": {
        "lsID": 18,
        "port": "MGT",
        "lsName": "Marigot",
        "lsGeoLocat": "NE",
        "lsCategory": "Marigot",
        "settlement": "Rural",
        "infrastruc": "full",
        "lat": 15.542,
        "long": -61.286,
        "FLOZone": 3,
        "activity": "high",
        "group": "NON",
        "type": "Official"
      }
    },
    {
      "type": "Feature",
      "id": "portlist.16",
      "geometry": {
        "type": "Point",
        "coordinates": [
          -61.398,
          15.361
        ]
      },
      "geometry_name": "the_geom",
      "properties": {
        "lsID": 17,
        "port": "MHT",
        "lsName": "Mahaut",
        "lsGeoLocat": "W",
        "lsCategory": "Mahaut",
        "settlement": "Suburban",
        "infrastruc": "some",
        "lat": 15.361,
        "long": -61.398,
        "FLOZone": 5,
        "activity": "med",
        "group": "NON",
        "type": "Official"
      }
    },
    {
      "type": "Feature",
      "id": "portlist.17",
      "geometry": {
        "type": "Point",
        "coordinates": [
          -61.428,
          15.416
        ]
      },
      "geometry_name": "the_geom",
      "properties": {
        "lsID": 20,
        "port": "MRO",
        "lsName": "Mero",
        "lsGeoLocat": "W",
        "lsCategory": "Other",
        "settlement": "Rural",
        "infrastruc": "none",
        "lat": 15.416,
        "long": -61.428,
        "FLOZone": 1,
        "activity": "Low",
        "group": "NON",
        "type": "Official"
      }
    },
    {
      "type": "Feature",
      "id": "portlist.18",
      "geometry": {
        "type": "Point",
        "coordinates": [
          -61.391,
          15.349
        ]
      },
      "geometry_name": "the_geom",
      "properties": {
        "lsID": 19,
        "port": "MSC",
        "lsName": "Massacre",
        "lsGeoLocat": "W",
        "lsCategory": "Other",
        "settlement": "Suburban",
        "infrastruc": "none",
        "lat": 15.349,
        "long": -61.391,
        "FLOZone": 5,
        "activity": "Low",
        "group": "NON",
        "type": "Official"
      }
    },
    {
      "type": "Feature",
      "id": "portlist.19",
      "geometry": {
        "type": "Point",
        "coordinates": [
          -61.378,
          15.29
        ]
      },
      "geometry_name": "the_geom",
      "properties": {
        "lsID": 21,
        "port": "NTN",
        "lsName": "Newtown",
        "lsGeoLocat": "SW",
        "lsCategory": "Newtown",
        "settlement": "Suburban",
        "infrastruc": "some",
        "lat": 15.29,
        "long": -61.378,
        "FLOZone": 4,
        "activity": "Low",
        "group": "NON",
        "type": "Official"
      }
    },
    {
      "type": "Feature",
      "id": "portlist.20",
      "geometry": {
        "type": "Point",
        "coordinates": [
          -61.455,
          15.575
        ]
      },
      "geometry_name": "the_geom",
      "properties": {
        "lsID": 24,
        "port": "PMH",
        "lsName": "Portsmouth",
        "lsGeoLocat": "NW",
        "lsCategory": "Portsmouth",
        "settlement": "Urban",
        "infrastruc": "full",
        "lat": 15.575,
        "long": -61.455,
        "FLOZone": 1,
        "activity": "high",
        "group": "NON",
        "type": "Official"
      }
    },
    {
      "type": "Feature",
      "id": "portlist.21",
      "geometry": {
        "type": "Point",
        "coordinates": [
          -61.374,
          15.25
        ]
      },
      "geometry_name": "the_geom",
      "properties": {
        "lsID": 23,
        "port": "PTM",
        "lsName": "Pointe Mitchel",
        "lsGeoLocat": "SW",
        "lsCategory": "Other",
        "settlement": "Rural",
        "infrastruc": "none",
        "lat": 15.25,
        "long": -61.374,
        "FLOZone": 4,
        "activity": "Low",
        "group": "NON",
        "type": "Official"
      }
    },
    {
      "type": "Feature",
      "id": "portlist.22",
      "geometry": {
        "type": "Point",
        "coordinates": [
          -61.39,
          15.303
        ]
      },
      "geometry_name": "the_geom",
      "properties": {
        "lsID": 25,
        "port": "PTV",
        "lsName": "Pottersville",
        "lsGeoLocat": "W",
        "lsCategory": "Pottersville",
        "settlement": "Suburban",
        "infrastruc": "some",
        "lat": 15.303,
        "long": -61.39,
        "FLOZone": 5,
        "activity": "high",
        "group": "NON",
        "type": "Official"
      }
    },
    {
      "type": "Feature",
      "id": "portlist.23",
      "geometry": {
        "type": "Point",
        "coordinates": [
          -61.43,
          15.43
        ]
      },
      "geometry_name": "the_geom",
      "properties": {
        "lsID": 27,
        "port": "SBY",
        "lsName": "Salisbury",
        "lsGeoLocat": "W",
        "lsCategory": "Other",
        "settlement": "Rural",
        "infrastruc": "none",
        "lat": 15.43,
        "long": -61.43,
        "FLOZone": 1,
        "activity": "Low",
        "group": "NON",
        "type": "Official"
      }
    },
    {
      "type": "Feature",
      "id": "portlist.24",
      "geometry": {
        "type": "Point",
        "coordinates": [
          -61.36,
          15.23
        ]
      },
      "geometry_name": "the_geom",
      "properties": {
        "lsID": 30,
        "port": "SFE",
        "lsName": "Soufriere",
        "lsGeoLocat": "S",
        "lsCategory": "Other",
        "settlement": "Rural",
        "infrastruc": "none",
        "lat": 15.23,
        "long": -61.36,
        "FLOZone": 4,
        "activity": "med",
        "group": "NON",
        "type": "Official"
      }
    },
    {
      "type": "Feature",
      "id": "portlist.25",
      "geometry": {
        "type": "Point",
        "coordinates": [
          -61.365,
          15.212
        ]
      },
      "geometry_name": "the_geom",
      "properties": {
        "lsID": 29,
        "port": "SHD",
        "lsName": "Scotts Head",
        "lsGeoLocat": "S",
        "lsCategory": "Scotts Head",
        "settlement": "Rural",
        "infrastruc": "some",
        "lat": 15.212,
        "long": -61.365,
        "FLOZone": 4,
        "activity": "high",
        "group": "NON",
        "type": "Official"
      }
    },
    {
      "type": "Feature",
      "id": "portlist.26",
      "geometry": {
        "type": "Point",
        "coordinates": [
          -61.253,
          15.404
        ]
      },
      "geometry_name": "the_geom",
      "properties": {
        "lsID": 28,
        "port": "SSR",
        "lsName": "Saint Sauveur",
        "lsGeoLocat": "E",
        "lsCategory": "Saint Sauveur",
        "settlement": "Rural",
        "infrastruc": "some",
        "lat": 15.404,
        "long": -61.253,
        "FLOZone": 3,
        "activity": "high",
        "group": "NON",
        "type": "Official"
      }
    },
    {
      "type": "Feature",
      "id": "portlist.27",
      "geometry": {
        "type": "Point",
        "coordinates": [
          -61.293,
          15.245
        ]
      },
      "geometry_name": "the_geom",
      "properties": {
        "lsID": 32,
        "port": "STE",
        "lsName": "Stowe",
        "lsGeoLocat": "SE",
        "lsCategory": "Other",
        "settlement": "Rural",
        "infrastruc": "none",
        "lat": 15.245,
        "long": -61.293,
        "FLOZone": 4,
        "activity": "high",
        "group": "NON",
        "type": "Official"
      }
    },
    {
      "type": "Feature",
      "id": "portlist.28",
      "geometry": {
        "type": "Point",
        "coordinates": [
          -61.425,
          15.405
        ]
      },
      "geometry_name": "the_geom",
      "properties": {
        "lsID": 31,
        "port": "STJ",
        "lsName": "St. Joseph",
        "lsGeoLocat": "W",
        "lsCategory": "St. Joseph",
        "settlement": "Rural",
        "infrastruc": "none",
        "lat": 15.405,
        "long": -61.425,
        "FLOZone": 5,
        "activity": "Low",
        "group": "NON",
        "type": "Official"
      }
    },
    {
      "type": "Feature",
      "id": "portlist.29",
      "geometry": {
        "type": "Point",
        "coordinates": [
          -61.465,
          15.61
        ]
      },
      "geometry_name": "the_geom",
      "properties": {
        "lsID": 36,
        "port": "TCE",
        "lsName": "Toucarie",
        "lsGeoLocat": "N",
        "lsCategory": "Other",
        "settlement": "Rural",
        "infrastruc": "none",
        "lat": 15.61,
        "long": -61.465,
        "FLOZone": 1,
        "activity": "Low",
        "group": "NON",
        "type": "Official"
      }
    },
    {
      "type": "Feature",
      "id": "portlist.30",
      "geometry": {
        "type": "Point",
        "coordinates": [
          -61.41,
          15.38
        ]
      },
      "geometry_name": "the_geom",
      "properties": {
        "lsID": 34,
        "port": "TRU",
        "lsName": "Tarou",
        "lsGeoLocat": "W",
        "lsCategory": "Layou",
        "settlement": "Rural",
        "infrastruc": "none",
        "lat": 15.38,
        "long": -61.41,
        "FLOZone": 5,
        "activity": "Low",
        "group": "LYU",
        "type": "Official"
      }
    },
    {
      "type": "Feature",
      "id": "portlist.31",
      "geometry": {
        "type": "Point",
        "coordinates": [
          -61.325,
          15.585
        ]
      },
      "geometry_name": "the_geom",
      "properties": {
        "lsID": 38,
        "port": "WFH",
        "lsName": "Woodford Hill",
        "lsGeoLocat": "NE",
        "lsCategory": "Other",
        "settlement": "Rural",
        "infrastruc": "some",
        "lat": 15.585,
        "long": -61.325,
        "FLOZone": 3,
        "activity": "Low",
        "group": "NON",
        "type": "Official"
      }
    }
  ],
  "crs": {
    "type": "name",
    "properties": {
      "name": "urn:ogc:def:crs:EPSG::4326"
    }
  }
}